^C:\Users\Ika\documents\visual studio 2015\Projects\Simulation\Simulation\Simulation.vcxproj
C:\Users\Ika\documents\visual studio 2015\Projects\Simulation\Debug\Simulation.lib
C:\Users\Ika\documents\visual studio 2015\Projects\Simulation\Debug\Simulation.exp
^C:\Users\Ika\Documents\Visual Studio 2015\Projects\Simulation\Simulation\Simulation.vcxproj
C:\Users\Ika\Documents\Visual Studio 2015\Projects\Simulation\Debug\Simulation.lib
C:\Users\Ika\Documents\Visual Studio 2015\Projects\Simulation\Debug\Simulation.exp
^C:\Users\Ika\Documents\Visual Studio 2015\Projects\Simulation\Simulation\Simulation.vcxproj
C:\Users\Ika\Documents\Visual Studio 2015\Projects\Simulation\Debug\Simulation.lib
C:\Users\Ika\Documents\Visual Studio 2015\Projects\Simulation\Debug\Simulation.exp
^C:\Users\Ika\Documents\Visual Studio 2015\Projects\Simulation\Simulation\Simulation.vcxproj
C:\Users\Ika\Documents\Visual Studio 2015\Projects\Simulation\Debug\Simulation.lib
C:\Users\Ika\Documents\Visual Studio 2015\Projects\Simulation\Debug\Simulation.exp
^C:\Users\Ika\Documents\Visual Studio 2015\Projects\Simulation\Simulation\Simulation.vcxproj
C:\Users\Ika\Documents\Visual Studio 2015\Projects\Simulation\Debug\Simulation.lib
C:\Users\Ika\Documents\Visual Studio 2015\Projects\Simulation\Debug\Simulation.exp
^C:\Users\Ika\Documents\Visual Studio 2015\Projects\Simulation\Simulation\Simulation.vcxproj
C:\Users\Ika\Documents\Visual Studio 2015\Projects\Simulation\Debug\Simulation.lib
C:\Users\Ika\Documents\Visual Studio 2015\Projects\Simulation\Debug\Simulation.exp
